(kicad_pcb (version 20171130) (host pcbnew "(5.1.2)-1")

  (general
    (thickness 1.6)
    (drawings 4)
    (tracks 84)
    (zones 0)
    (modules 11)
    (nets 11)
  )

  (page A4)
  (layers
    (0 F.Cu signal)
    (31 B.Cu signal)
    (32 B.Adhes user)
    (33 F.Adhes user)
    (34 B.Paste user)
    (35 F.Paste user)
    (36 B.SilkS user hide)
    (37 F.SilkS user)
    (38 B.Mask user hide)
    (39 F.Mask user hide)
    (40 Dwgs.User user hide)
    (41 Cmts.User user hide)
    (42 Eco1.User user hide)
    (43 Eco2.User user hide)
    (44 Edge.Cuts user)
    (45 Margin user hide)
    (46 B.CrtYd user hide)
    (47 F.CrtYd user hide)
    (48 B.Fab user hide)
    (49 F.Fab user hide)
  )

  (setup
    (last_trace_width 0.4)
    (trace_clearance 0.3)
    (zone_clearance 0.508)
    (zone_45_only no)
    (trace_min 0.2)
    (via_size 0.6)
    (via_drill 0.4)
    (via_min_size 0.4)
    (via_min_drill 0.3)
    (uvia_size 0.3)
    (uvia_drill 0.1)
    (uvias_allowed no)
    (uvia_min_size 0.2)
    (uvia_min_drill 0.1)
    (edge_width 0.05)
    (segment_width 0.2)
    (pcb_text_width 0.3)
    (pcb_text_size 1.5 1.5)
    (mod_edge_width 0.12)
    (mod_text_size 1 1)
    (mod_text_width 0.15)
    (pad_size 1.524 1.524)
    (pad_drill 0.762)
    (pad_to_mask_clearance 0.051)
    (solder_mask_min_width 0.25)
    (aux_axis_origin 0 0)
    (visible_elements 7FFFFFFF)
    (pcbplotparams
      (layerselection 0x010fc_ffffffff)
      (usegerberextensions false)
      (usegerberattributes false)
      (usegerberadvancedattributes false)
      (creategerberjobfile false)
      (excludeedgelayer true)
      (linewidth 0.100000)
      (plotframeref false)
      (viasonmask false)
      (mode 1)
      (useauxorigin false)
      (hpglpennumber 1)
      (hpglpenspeed 20)
      (hpglpendiameter 15.000000)
      (psnegative false)
      (psa4output false)
      (plotreference true)
      (plotvalue true)
      (plotinvisibletext false)
      (padsonsilk false)
      (subtractmaskfromsilk false)
      (outputformat 1)
      (mirror false)
      (drillshape 1)
      (scaleselection 1)
      (outputdirectory ""))
  )

  (net 0 "")
  (net 1 "Net-(FABISP1-Pad1)")
  (net 2 "Net-(FABISP1-Pad3)")
  (net 3 "Net-(FABISP1-Pad4)")
  (net 4 "Net-(FABISP1-Pad5)")
  (net 5 "Net-(M2-Pad3)")
  (net 6 "Net-(T1-Pad1)")
  (net 7 "Net-(T1-Pad3)")
  (net 8 vcc)
  (net 9 ground)
  (net 10 "Net-(M2-Pad2)")

  (net_class Default "Esta es la clase de red por defecto."
    (clearance 0.3)
    (trace_width 0.4)
    (via_dia 0.6)
    (via_drill 0.4)
    (uvia_dia 0.3)
    (uvia_drill 0.1)
    (diff_pair_width 0.4)
    (diff_pair_gap 0.25)
    (add_net "Net-(FABISP1-Pad1)")
    (add_net "Net-(FABISP1-Pad3)")
    (add_net "Net-(FABISP1-Pad4)")
    (add_net "Net-(FABISP1-Pad5)")
    (add_net "Net-(M2-Pad2)")
    (add_net "Net-(M2-Pad3)")
    (add_net "Net-(T1-Pad1)")
    (add_net "Net-(T1-Pad3)")
    (add_net ground)
    (add_net vcc)
  )

  (module fab-C1206FAB (layer F.Cu) (tedit 200000) (tstamp 5CF08199)
    (at 124.079 91.44 180)
    (path /5CEEBB8C)
    (attr smd)
    (fp_text reference C1 (at 0.762 -1.778) (layer F.SilkS)
      (effects (font (size 1.016 1.016) (thickness 0.1524)))
    )
    (fp_text value CAP-UNPOLARIZEDFAB (at 1.27 1.778) (layer F.SilkS)
      (effects (font (size 1.016 1.016) (thickness 0.1524)))
    )
    (fp_line (start -2.032 -1.016) (end 2.032 -1.016) (layer B.SilkS) (width 0.127))
    (fp_line (start 2.032 -1.016) (end 2.032 1.016) (layer B.SilkS) (width 0.127))
    (fp_line (start 2.032 1.016) (end -2.032 1.016) (layer B.SilkS) (width 0.127))
    (fp_line (start -2.032 1.016) (end -2.032 -1.016) (layer B.SilkS) (width 0.127))
    (pad 1 smd rect (at -1.651 0 180) (size 1.27 1.905) (layers F.Cu F.Paste F.Mask)
      (net 8 vcc))
    (pad 2 smd rect (at 1.651 0 180) (size 1.27 1.905) (layers F.Cu F.Paste F.Mask)
      (net 9 ground))
  )

  (module fab-2X03SMD (layer F.Cu) (tedit 200000) (tstamp 5CF081A3)
    (at 146.05 90.17)
    (path /5CEED2B1)
    (attr smd)
    (fp_text reference FABISP1 (at -0.635 -4.445) (layer F.SilkS)
      (effects (font (size 1.27 1.27) (thickness 0.1016)))
    )
    (fp_text value AVRISPSMD (at 0 4.445) (layer F.SilkS)
      (effects (font (size 1.27 1.27) (thickness 0.1016)))
    )
    (pad 1 smd rect (at -2.54 -2.54) (size 2.54 1.27) (layers F.Cu F.Paste F.Mask)
      (net 1 "Net-(FABISP1-Pad1)"))
    (pad 2 smd rect (at 2.91846 -2.54) (size 2.54 1.27) (layers F.Cu F.Paste F.Mask)
      (net 8 vcc))
    (pad 3 smd rect (at -2.54 0) (size 2.54 1.27) (layers F.Cu F.Paste F.Mask)
      (net 2 "Net-(FABISP1-Pad3)"))
    (pad 4 smd rect (at 2.91846 0) (size 2.54 1.27) (layers F.Cu F.Paste F.Mask)
      (net 3 "Net-(FABISP1-Pad4)"))
    (pad 5 smd rect (at -2.54 2.54) (size 2.54 1.27) (layers F.Cu F.Paste F.Mask)
      (net 4 "Net-(FABISP1-Pad5)"))
    (pad 6 smd rect (at 2.91846 2.54) (size 2.54 1.27) (layers F.Cu F.Paste F.Mask)
      (net 9 ground))
  )

  (module fab-SOIC8 (layer F.Cu) (tedit 200000) (tstamp 5CF081F2)
    (at 135.89 90.17)
    (descr "WIDE PLASTIC GULL WING SMALL OUTLINE PACKAGE")
    (tags "WIDE PLASTIC GULL WING SMALL OUTLINE PACKAGE")
    (path /5CEE4DDC)
    (attr smd)
    (fp_text reference M2 (at -3.4925 -1.016 90) (layer F.SilkS)
      (effects (font (size 1.27 1.27) (thickness 0.127)))
    )
    (fp_text value ATTINY45SI (at 3.429 -1.651 90) (layer F.SilkS)
      (effects (font (size 1.27 1.27) (thickness 0.127)))
    )
    (fp_line (start -2.07772 -2.49936) (end -1.72974 -2.49936) (layer F.SilkS) (width 0.06604))
    (fp_line (start -1.72974 -2.49936) (end -1.72974 -3.39852) (layer F.SilkS) (width 0.06604))
    (fp_line (start -2.07772 -3.39852) (end -1.72974 -3.39852) (layer F.SilkS) (width 0.06604))
    (fp_line (start -2.07772 -2.49936) (end -2.07772 -3.39852) (layer F.SilkS) (width 0.06604))
    (fp_line (start -0.80772 -2.49936) (end -0.45974 -2.49936) (layer F.SilkS) (width 0.06604))
    (fp_line (start -0.45974 -2.49936) (end -0.45974 -3.39852) (layer F.SilkS) (width 0.06604))
    (fp_line (start -0.80772 -3.39852) (end -0.45974 -3.39852) (layer F.SilkS) (width 0.06604))
    (fp_line (start -0.80772 -2.49936) (end -0.80772 -3.39852) (layer F.SilkS) (width 0.06604))
    (fp_line (start 0.45974 -2.49936) (end 0.80772 -2.49936) (layer F.SilkS) (width 0.06604))
    (fp_line (start 0.80772 -2.49936) (end 0.80772 -3.39852) (layer F.SilkS) (width 0.06604))
    (fp_line (start 0.45974 -3.39852) (end 0.80772 -3.39852) (layer F.SilkS) (width 0.06604))
    (fp_line (start 0.45974 -2.49936) (end 0.45974 -3.39852) (layer F.SilkS) (width 0.06604))
    (fp_line (start 1.72974 -2.49936) (end 2.07772 -2.49936) (layer F.SilkS) (width 0.06604))
    (fp_line (start 2.07772 -2.49936) (end 2.07772 -3.39852) (layer F.SilkS) (width 0.06604))
    (fp_line (start 1.72974 -3.39852) (end 2.07772 -3.39852) (layer F.SilkS) (width 0.06604))
    (fp_line (start 1.72974 -2.49936) (end 1.72974 -3.39852) (layer F.SilkS) (width 0.06604))
    (fp_line (start 1.71958 3.39852) (end 2.06756 3.39852) (layer F.SilkS) (width 0.06604))
    (fp_line (start 2.06756 3.39852) (end 2.06756 2.49936) (layer F.SilkS) (width 0.06604))
    (fp_line (start 1.71958 2.49936) (end 2.06756 2.49936) (layer F.SilkS) (width 0.06604))
    (fp_line (start 1.71958 3.39852) (end 1.71958 2.49936) (layer F.SilkS) (width 0.06604))
    (fp_line (start 0.44958 3.39852) (end 0.79756 3.39852) (layer F.SilkS) (width 0.06604))
    (fp_line (start 0.79756 3.39852) (end 0.79756 2.49936) (layer F.SilkS) (width 0.06604))
    (fp_line (start 0.44958 2.49936) (end 0.79756 2.49936) (layer F.SilkS) (width 0.06604))
    (fp_line (start 0.44958 3.39852) (end 0.44958 2.49936) (layer F.SilkS) (width 0.06604))
    (fp_line (start -0.81788 3.39852) (end -0.4699 3.39852) (layer F.SilkS) (width 0.06604))
    (fp_line (start -0.4699 3.39852) (end -0.4699 2.49936) (layer F.SilkS) (width 0.06604))
    (fp_line (start -0.81788 2.49936) (end -0.4699 2.49936) (layer F.SilkS) (width 0.06604))
    (fp_line (start -0.81788 3.39852) (end -0.81788 2.49936) (layer F.SilkS) (width 0.06604))
    (fp_line (start -2.07772 3.39852) (end -1.72974 3.39852) (layer F.SilkS) (width 0.06604))
    (fp_line (start -1.72974 3.39852) (end -1.72974 2.49936) (layer F.SilkS) (width 0.06604))
    (fp_line (start -2.07772 2.49936) (end -1.72974 2.49936) (layer F.SilkS) (width 0.06604))
    (fp_line (start -2.07772 3.39852) (end -2.07772 2.49936) (layer F.SilkS) (width 0.06604))
    (fp_line (start 2.35966 2.49936) (end -2.33934 2.49936) (layer F.SilkS) (width 0.1524))
    (fp_line (start -2.33934 -2.49936) (end 2.35966 -2.49936) (layer F.SilkS) (width 0.1524))
    (fp_line (start -2.2098 -2.49936) (end -2.33934 -2.49936) (layer B.SilkS) (width 0.1524))
    (fp_line (start -1.5875 -2.49936) (end -0.94996 -2.49936) (layer B.SilkS) (width 0.1524))
    (fp_line (start -0.3175 -2.49936) (end 0.3175 -2.49936) (layer B.SilkS) (width 0.1524))
    (fp_line (start 0.94996 -2.49936) (end 1.5875 -2.49936) (layer B.SilkS) (width 0.1524))
    (fp_line (start 2.2098 -2.49936) (end 2.35966 -2.49936) (layer B.SilkS) (width 0.1524))
    (fp_line (start 2.19964 2.49936) (end 2.32918 2.49936) (layer B.SilkS) (width 0.1524))
    (fp_line (start 1.5875 2.49936) (end 0.9398 2.49936) (layer B.SilkS) (width 0.1524))
    (fp_line (start 0.3175 2.49936) (end -0.32766 2.49936) (layer B.SilkS) (width 0.1524))
    (fp_line (start -0.94996 2.49936) (end -1.5875 2.49936) (layer B.SilkS) (width 0.1524))
    (fp_line (start -2.2098 2.49936) (end -2.33934 2.49936) (layer B.SilkS) (width 0.1524))
    (fp_line (start -2.59842 -2.2479) (end -2.59842 2.23774) (layer B.SilkS) (width 0.1524))
    (fp_line (start 2.59842 2.2479) (end 2.59842 -2.2479) (layer B.SilkS) (width 0.1524))
    (fp_circle (center -1.41986 1.11252) (end -1.66878 1.36144) (layer B.SilkS) (width 0.0254))
    (fp_arc (start -2.3495 -2.2479) (end -2.59842 -2.2479) (angle 90) (layer B.SilkS) (width 0.1524))
    (fp_arc (start 2.3495 -2.2479) (end 2.3495 -2.49936) (angle 90) (layer B.SilkS) (width 0.1524))
    (fp_arc (start 2.3495 2.2479) (end 2.59842 2.2479) (angle 90) (layer B.SilkS) (width 0.1524))
    (fp_arc (start -2.3495 2.2479) (end -2.3495 2.49936) (angle 90) (layer B.SilkS) (width 0.1524))
    (pad 1 smd rect (at -1.905 3.15214) (size 0.49784 2.19964) (layers F.Cu F.Paste F.Mask)
      (net 4 "Net-(FABISP1-Pad5)"))
    (pad 2 smd rect (at -0.64262 3.15214) (size 0.49784 2.19964) (layers F.Cu F.Paste F.Mask)
      (net 10 "Net-(M2-Pad2)"))
    (pad 3 smd rect (at 0.62484 3.15214) (size 0.49784 2.19964) (layers F.Cu F.Paste F.Mask)
      (net 5 "Net-(M2-Pad3)"))
    (pad 4 smd rect (at 1.89484 3.15214) (size 0.49784 2.19964) (layers F.Cu F.Paste F.Mask)
      (net 9 ground))
    (pad 5 smd rect (at 1.905 -3.15214) (size 0.49784 2.19964) (layers F.Cu F.Paste F.Mask)
      (net 3 "Net-(FABISP1-Pad4)"))
    (pad 6 smd rect (at 0.635 -3.15214) (size 0.49784 2.19964) (layers F.Cu F.Paste F.Mask)
      (net 1 "Net-(FABISP1-Pad1)"))
    (pad 7 smd rect (at -0.635 -3.15214) (size 0.49784 2.19964) (layers F.Cu F.Paste F.Mask)
      (net 2 "Net-(FABISP1-Pad3)"))
    (pad 8 smd rect (at -1.905 -3.15214) (size 0.49784 2.19964) (layers F.Cu F.Paste F.Mask)
      (net 8 vcc))
  )

  (module fab-R1206FAB (layer F.Cu) (tedit 200000) (tstamp 5CF081FC)
    (at 130.81 89.789 270)
    (path /5CEEAA63)
    (attr smd)
    (fp_text reference R1 (at 0.762 -1.778 90) (layer F.SilkS)
      (effects (font (size 1.016 1.016) (thickness 0.1524)))
    )
    (fp_text value RES-US1206FAB (at 1.27 1.778 90) (layer F.SilkS)
      (effects (font (size 1.016 1.016) (thickness 0.1524)))
    )
    (fp_line (start -2.032 -1.016) (end 2.032 -1.016) (layer B.SilkS) (width 0.127))
    (fp_line (start 2.032 -1.016) (end 2.032 1.016) (layer B.SilkS) (width 0.127))
    (fp_line (start 2.032 1.016) (end -2.032 1.016) (layer B.SilkS) (width 0.127))
    (fp_line (start -2.032 1.016) (end -2.032 -1.016) (layer B.SilkS) (width 0.127))
    (pad 1 smd rect (at -1.651 0 270) (size 1.27 1.905) (layers F.Cu F.Paste F.Mask)
      (net 8 vcc))
    (pad 2 smd rect (at 1.651 0 270) (size 1.27 1.905) (layers F.Cu F.Paste F.Mask)
      (net 4 "Net-(FABISP1-Pad5)"))
  )

  (module fab-R1206FAB (layer F.Cu) (tedit 200000) (tstamp 5CF08206)
    (at 134.62 100.33 90)
    (path /5CEEB214)
    (attr smd)
    (fp_text reference R3 (at 0.762 -1.778 90) (layer F.SilkS)
      (effects (font (size 1.016 1.016) (thickness 0.1524)))
    )
    (fp_text value RES-US1206FAB (at -0.381 1.778 90) (layer F.SilkS)
      (effects (font (size 1.016 1.016) (thickness 0.1524)))
    )
    (fp_line (start -2.032 1.016) (end -2.032 -1.016) (layer B.SilkS) (width 0.127))
    (fp_line (start 2.032 1.016) (end -2.032 1.016) (layer B.SilkS) (width 0.127))
    (fp_line (start 2.032 -1.016) (end 2.032 1.016) (layer B.SilkS) (width 0.127))
    (fp_line (start -2.032 -1.016) (end 2.032 -1.016) (layer B.SilkS) (width 0.127))
    (pad 2 smd rect (at 1.651 0 90) (size 1.27 1.905) (layers F.Cu F.Paste F.Mask)
      (net 10 "Net-(M2-Pad2)"))
    (pad 1 smd rect (at -1.651 0 90) (size 1.27 1.905) (layers F.Cu F.Paste F.Mask)
      (net 9 ground))
  )

  (module fab-SOT-23 (layer F.Cu) (tedit 200000) (tstamp 5CF0821D)
    (at 123.5202 103.886 180)
    (descr "SMALL OUTLINE TRANSISTOR")
    (tags "SMALL OUTLINE TRANSISTOR")
    (path /5CEEEE05)
    (attr smd)
    (fp_text reference T1 (at 1.778 -3.937) (layer F.SilkS)
      (effects (font (size 1.27 1.27) (thickness 0.127)))
    )
    (fp_text value NMOSFETSOT23 (at 2.413 -2.413) (layer F.SilkS)
      (effects (font (size 1.27 1.27) (thickness 0.127)))
    )
    (fp_line (start 0.7874 -0.4318) (end 1.1684 -0.4318) (layer F.SilkS) (width 0.06604))
    (fp_line (start 1.1684 -0.4318) (end 1.1684 -0.9398) (layer F.SilkS) (width 0.06604))
    (fp_line (start 0.7874 -0.9398) (end 1.1684 -0.9398) (layer F.SilkS) (width 0.06604))
    (fp_line (start 0.7874 -0.4318) (end 0.7874 -0.9398) (layer F.SilkS) (width 0.06604))
    (fp_line (start -1.143 -0.4318) (end -0.762 -0.4318) (layer F.SilkS) (width 0.06604))
    (fp_line (start -0.762 -0.4318) (end -0.762 -0.9398) (layer F.SilkS) (width 0.06604))
    (fp_line (start -1.143 -0.9398) (end -0.762 -0.9398) (layer F.SilkS) (width 0.06604))
    (fp_line (start -1.143 -0.4318) (end -1.143 -0.9398) (layer F.SilkS) (width 0.06604))
    (fp_line (start -0.1778 0.9398) (end 0.2032 0.9398) (layer F.SilkS) (width 0.06604))
    (fp_line (start 0.2032 0.9398) (end 0.2032 0.4318) (layer F.SilkS) (width 0.06604))
    (fp_line (start -0.1778 0.4318) (end 0.2032 0.4318) (layer F.SilkS) (width 0.06604))
    (fp_line (start -0.1778 0.9398) (end -0.1778 0.4318) (layer F.SilkS) (width 0.06604))
    (fp_line (start -1.4224 -0.381) (end 1.4732 -0.381) (layer B.SilkS) (width 0.1524))
    (fp_line (start 1.4732 -0.381) (end 1.4732 0.381) (layer B.SilkS) (width 0.1524))
    (fp_line (start 1.4732 0.381) (end -1.4224 0.381) (layer B.SilkS) (width 0.1524))
    (fp_line (start -1.4224 0.381) (end -1.4224 -0.381) (layer B.SilkS) (width 0.1524))
    (pad 1 smd rect (at 0.0254 1.016 180) (size 0.7874 0.889) (layers F.Cu F.Paste F.Mask)
      (net 6 "Net-(T1-Pad1)"))
    (pad 2 smd rect (at -0.9398 -1.016 180) (size 0.7874 0.889) (layers F.Cu F.Paste F.Mask)
      (net 9 ground))
    (pad 3 smd rect (at 0.9906 -1.016 180) (size 0.7874 0.889) (layers F.Cu F.Paste F.Mask)
      (net 7 "Net-(T1-Pad3)"))
  )

  (module fab:fab-LED1206FAB (layer F.Cu) (tedit 200000) (tstamp 5CF0932E)
    (at 118.11 89.789 90)
    (descr "LED1206 FAB STYLE (SMALLER PADS TO ALLOW TRACE BETWEEN)")
    (tags "LED1206 FAB STYLE (SMALLER PADS TO ALLOW TRACE BETWEEN)")
    (path /5CEE645C)
    (attr smd)
    (fp_text reference battery1 (at 0.762 -1.778 90) (layer F.SilkS)
      (effects (font (size 1.016 1.016) (thickness 0.1524)))
    )
    (fp_text value Conn_01x02_Male (at 1.27 1.778 90) (layer F.SilkS)
      (effects (font (size 1.016 1.016) (thickness 0.1524)))
    )
    (fp_line (start -2.032 -1.016) (end 2.032 -1.016) (layer B.SilkS) (width 0.127))
    (fp_line (start 2.032 -1.016) (end 2.032 1.016) (layer B.SilkS) (width 0.127))
    (fp_line (start 2.032 1.016) (end -2.032 1.016) (layer B.SilkS) (width 0.127))
    (fp_line (start -2.032 1.016) (end -2.032 -1.016) (layer B.SilkS) (width 0.127))
    (pad 1 smd rect (at -1.651 0 90) (size 1.27 1.905) (layers F.Cu F.Paste F.Mask)
      (net 9 ground))
    (pad 2 smd rect (at 1.651 0 90) (size 1.27 1.905) (layers F.Cu F.Paste F.Mask)
      (net 8 vcc))
  )

  (module fab:fab-LED1206FAB (layer F.Cu) (tedit 200000) (tstamp 5CF09AE8)
    (at 118.11 98.171 90)
    (descr "LED1206 FAB STYLE (SMALLER PADS TO ALLOW TRACE BETWEEN)")
    (tags "LED1206 FAB STYLE (SMALLER PADS TO ALLOW TRACE BETWEEN)")
    (path /5CEEECFB)
    (attr smd)
    (fp_text reference airpump1 (at 0.762 -1.778 90) (layer F.SilkS)
      (effects (font (size 1.016 1.016) (thickness 0.1524)))
    )
    (fp_text value Conn_01x02_Male (at 1.27 1.778 90) (layer F.SilkS)
      (effects (font (size 1.016 1.016) (thickness 0.1524)))
    )
    (fp_line (start -2.032 -1.016) (end 2.032 -1.016) (layer B.SilkS) (width 0.127))
    (fp_line (start 2.032 -1.016) (end 2.032 1.016) (layer B.SilkS) (width 0.127))
    (fp_line (start 2.032 1.016) (end -2.032 1.016) (layer B.SilkS) (width 0.127))
    (fp_line (start -2.032 1.016) (end -2.032 -1.016) (layer B.SilkS) (width 0.127))
    (pad 1 smd rect (at -1.651 0 90) (size 1.27 1.905) (layers F.Cu F.Paste F.Mask)
      (net 6 "Net-(T1-Pad1)"))
    (pad 2 smd rect (at 1.651 0 90) (size 1.27 1.905) (layers F.Cu F.Paste F.Mask)
      (net 8 vcc))
  )

  (module fab-R1206FAB (layer F.Cu) (tedit 200000) (tstamp 5CF09CD5)
    (at 133.731 82.55)
    (path /5CF2FFF4)
    (attr smd)
    (fp_text reference jumper2 (at 0.762 -1.778) (layer F.SilkS)
      (effects (font (size 1.016 1.016) (thickness 0.1524)))
    )
    (fp_text value RES-US1206FAB (at 1.27 1.778) (layer F.SilkS)
      (effects (font (size 1.016 1.016) (thickness 0.1524)))
    )
    (fp_line (start -2.032 1.016) (end -2.032 -1.016) (layer B.SilkS) (width 0.127))
    (fp_line (start 2.032 1.016) (end -2.032 1.016) (layer B.SilkS) (width 0.127))
    (fp_line (start 2.032 -1.016) (end 2.032 1.016) (layer B.SilkS) (width 0.127))
    (fp_line (start -2.032 -1.016) (end 2.032 -1.016) (layer B.SilkS) (width 0.127))
    (pad 2 smd rect (at 1.651 0) (size 1.27 1.905) (layers F.Cu F.Paste F.Mask)
      (net 1 "Net-(FABISP1-Pad1)"))
    (pad 1 smd rect (at -1.651 0) (size 1.27 1.905) (layers F.Cu F.Paste F.Mask)
      (net 7 "Net-(T1-Pad3)"))
  )

  (module fab:fab-R1206FAB (layer F.Cu) (tedit 200000) (tstamp 5CF0BA52)
    (at 127.381 96.52)
    (path /5CF4A009)
    (attr smd)
    (fp_text reference R2 (at 0.762 -1.778) (layer F.SilkS)
      (effects (font (size 1.016 1.016) (thickness 0.1524)))
    )
    (fp_text value LDR03 (at 1.27 1.778) (layer F.SilkS)
      (effects (font (size 1.016 1.016) (thickness 0.1524)))
    )
    (fp_line (start -2.032 -1.016) (end 2.032 -1.016) (layer B.SilkS) (width 0.127))
    (fp_line (start 2.032 -1.016) (end 2.032 1.016) (layer B.SilkS) (width 0.127))
    (fp_line (start 2.032 1.016) (end -2.032 1.016) (layer B.SilkS) (width 0.127))
    (fp_line (start -2.032 1.016) (end -2.032 -1.016) (layer B.SilkS) (width 0.127))
    (pad 1 smd rect (at -1.651 0) (size 1.27 1.905) (layers F.Cu F.Paste F.Mask)
      (net 8 vcc))
    (pad 2 smd rect (at 1.651 0) (size 1.27 1.905) (layers F.Cu F.Paste F.Mask)
      (net 10 "Net-(M2-Pad2)"))
  )

  (module fab-R1206FAB (layer F.Cu) (tedit 200000) (tstamp 5CF0BD32)
    (at 121.92 96.139 90)
    (path /5CF2FB71)
    (attr smd)
    (fp_text reference jumper1 (at 0.762 -1.778 90) (layer F.SilkS)
      (effects (font (size 1.016 1.016) (thickness 0.1524)))
    )
    (fp_text value RES-US1206FAB (at 1.27 1.778 90) (layer F.SilkS)
      (effects (font (size 1.016 1.016) (thickness 0.1524)))
    )
    (fp_line (start -2.032 -1.016) (end 2.032 -1.016) (layer B.SilkS) (width 0.127))
    (fp_line (start 2.032 -1.016) (end 2.032 1.016) (layer B.SilkS) (width 0.127))
    (fp_line (start 2.032 1.016) (end -2.032 1.016) (layer B.SilkS) (width 0.127))
    (fp_line (start -2.032 1.016) (end -2.032 -1.016) (layer B.SilkS) (width 0.127))
    (pad 1 smd rect (at -1.651 0 90) (size 1.27 1.905) (layers F.Cu F.Paste F.Mask)
      (net 9 ground))
    (pad 2 smd rect (at 1.651 0 90) (size 1.27 1.905) (layers F.Cu F.Paste F.Mask)
      (net 9 ground))
  )

  (gr_line (start 110.49 109.22) (end 110.49 77.47) (layer Edge.Cuts) (width 0.2))
  (gr_line (start 154.94 109.22) (end 110.49 109.22) (layer Edge.Cuts) (width 0.2))
  (gr_line (start 154.94 77.47) (end 154.94 109.22) (layer Edge.Cuts) (width 0.2))
  (gr_line (start 110.49 77.47) (end 154.94 77.47) (layer Edge.Cuts) (width 0.2))

  (segment (start 136.525 88.51768) (end 136.525 87.01786) (width 0.4) (layer F.Cu) (net 1))
  (segment (start 136.90732 88.9) (end 136.525 88.51768) (width 0.4) (layer F.Cu) (net 1))
  (segment (start 139.7 88.9) (end 136.90732 88.9) (width 0.4) (layer F.Cu) (net 1))
  (segment (start 143.51 87.63) (end 140.97 87.63) (width 0.4) (layer F.Cu) (net 1))
  (segment (start 140.97 87.63) (end 139.7 88.9) (width 0.4) (layer F.Cu) (net 1))
  (segment (start 135.382 82.55) (end 136.417 82.55) (width 0.4) (layer F.Cu) (net 1))
  (segment (start 136.525 85.725) (end 136.525 87.01786) (width 0.4) (layer F.Cu) (net 1))
  (segment (start 136.417 85.617) (end 136.525 85.725) (width 0.4) (layer F.Cu) (net 1))
  (segment (start 136.417 82.55) (end 136.417 85.617) (width 0.4) (layer F.Cu) (net 1))
  (segment (start 135.255 89.535) (end 135.255 87.01786) (width 0.4) (layer F.Cu) (net 2))
  (segment (start 135.89 90.17) (end 135.255 89.535) (width 0.4) (layer F.Cu) (net 2))
  (segment (start 135.89 90.17) (end 143.51 90.17) (width 0.4) (layer F.Cu) (net 2))
  (segment (start 135.255 87.01786) (end 135.255 85.659991) (width 0.4) (layer F.Cu) (net 2))
  (segment (start 137.795 85.51804) (end 138.22304 85.09) (width 0.4) (layer F.Cu) (net 3))
  (segment (start 137.795 87.01786) (end 137.795 85.51804) (width 0.4) (layer F.Cu) (net 3))
  (segment (start 138.22304 85.09) (end 146.05 85.09) (width 0.4) (layer F.Cu) (net 3))
  (segment (start 146.05 85.09) (end 146.05 90.17) (width 0.4) (layer F.Cu) (net 3))
  (segment (start 146.05 90.17) (end 148.96846 90.17) (width 0.4) (layer F.Cu) (net 3))
  (segment (start 135.01624 91.44) (end 133.985 92.47124) (width 0.4) (layer F.Cu) (net 4))
  (segment (start 133.985 94.17304) (end 133.985 93.32214) (width 0.4) (layer F.Cu) (net 4))
  (segment (start 143.51 92.71) (end 140.97 92.71) (width 0.4) (layer F.Cu) (net 4))
  (segment (start 140.97 92.71) (end 139.7 91.44) (width 0.4) (layer F.Cu) (net 4))
  (segment (start 139.7 91.44) (end 135.01624 91.44) (width 0.4) (layer F.Cu) (net 4))
  (segment (start 133.985 94.82196) (end 133.985 93.32214) (width 0.4) (layer F.Cu) (net 4))
  (segment (start 133.985 92.47124) (end 133.985 93.32214) (width 0.4) (layer F.Cu) (net 4))
  (segment (start 133.985 91.82232) (end 133.985 93.32214) (width 0.4) (layer F.Cu) (net 4))
  (segment (start 133.60268 91.44) (end 133.985 91.82232) (width 0.4) (layer F.Cu) (net 4))
  (segment (start 130.81 91.44) (end 133.60268 91.44) (width 0.4) (layer F.Cu) (net 4))
  (segment (start 123.4948 101.9048) (end 123.4948 102.87) (width 0.4) (layer F.Cu) (net 6))
  (segment (start 118.11 99.822) (end 121.412 99.822) (width 0.4) (layer F.Cu) (net 6))
  (segment (start 121.412 99.822) (end 123.4948 101.9048) (width 0.4) (layer F.Cu) (net 6))
  (segment (start 122.5296 104.902) (end 122.5296 104.8512) (width 0.4) (layer F.Cu) (net 7))
  (segment (start 121.412 104.902) (end 122.5296 104.902) (width 0.4) (layer F.Cu) (net 7))
  (segment (start 128.27 82.55) (end 125.73 85.09) (width 0.4) (layer F.Cu) (net 7))
  (segment (start 132.08 82.55) (end 128.27 82.55) (width 0.4) (layer F.Cu) (net 7))
  (segment (start 125.73 85.09) (end 114.3 85.09) (width 0.4) (layer F.Cu) (net 7))
  (segment (start 114.3 85.09) (end 114.3 102.87) (width 0.4) (layer F.Cu) (net 7))
  (segment (start 114.3 102.87) (end 119.38 102.87) (width 0.4) (layer F.Cu) (net 7))
  (segment (start 119.38 102.87) (end 121.412 104.902) (width 0.4) (layer F.Cu) (net 7))
  (segment (start 135.24738 98.94062) (end 135.128 99.06) (width 0.4) (layer F.Cu) (net 10))
  (segment (start 148.59 83.82) (end 148.96846 84.19846) (width 0.4) (layer F.Cu) (net 8))
  (segment (start 138.43 83.82) (end 148.59 83.82) (width 0.4) (layer F.Cu) (net 8))
  (segment (start 138.43 81.28) (end 138.43 83.82) (width 0.4) (layer F.Cu) (net 8))
  (segment (start 133.985 87.01786) (end 133.985 85.51804) (width 0.4) (layer F.Cu) (net 8))
  (segment (start 133.35 84.88304) (end 133.35 81.28) (width 0.4) (layer F.Cu) (net 8))
  (segment (start 133.35 81.28) (end 134.62 80.01) (width 0.4) (layer F.Cu) (net 8))
  (segment (start 133.985 85.51804) (end 133.35 84.88304) (width 0.4) (layer F.Cu) (net 8))
  (segment (start 134.62 80.01) (end 137.16 80.01) (width 0.4) (layer F.Cu) (net 8))
  (segment (start 148.96846 84.19846) (end 148.96846 87.63) (width 0.4) (layer F.Cu) (net 8))
  (segment (start 137.16 80.01) (end 138.43 81.28) (width 0.4) (layer F.Cu) (net 8))
  (segment (start 130.81 88.138) (end 130.81 87.63) (width 0.4) (layer F.Cu) (net 8))
  (segment (start 131.42214 87.01786) (end 133.985 87.01786) (width 0.4) (layer F.Cu) (net 8))
  (segment (start 130.81 87.63) (end 131.42214 87.01786) (width 0.4) (layer F.Cu) (net 8))
  (segment (start 123.698 88.138) (end 125.73 88.138) (width 0.4) (layer F.Cu) (net 8))
  (segment (start 123.698 88.138) (end 118.11 88.138) (width 0.4) (layer F.Cu) (net 8))
  (segment (start 125.73 96.52) (end 125.73 91.44) (width 0.4) (layer F.Cu) (net 8))
  (segment (start 125.73 88.646) (end 125.222 88.138) (width 0.4) (layer F.Cu) (net 8))
  (segment (start 125.73 91.44) (end 125.73 88.646) (width 0.4) (layer F.Cu) (net 8))
  (segment (start 130.81 88.138) (end 125.222 88.138) (width 0.4) (layer F.Cu) (net 8))
  (segment (start 125.222 88.138) (end 123.698 88.138) (width 0.4) (layer F.Cu) (net 8))
  (segment (start 125.73 96.52) (end 118.11 96.52) (width 0.4) (layer F.Cu) (net 8))
  (segment (start 137.78484 95.87484) (end 137.78484 93.32214) (width 0.4) (layer F.Cu) (net 9))
  (segment (start 138.43 96.52) (end 137.78484 95.87484) (width 0.4) (layer F.Cu) (net 9))
  (segment (start 151.13 92.71) (end 148.96846 92.71) (width 0.4) (layer F.Cu) (net 9))
  (segment (start 138.43 96.52) (end 151.13 96.52) (width 0.4) (layer F.Cu) (net 9))
  (segment (start 151.13 96.52) (end 151.13 92.71) (width 0.4) (layer F.Cu) (net 9))
  (segment (start 134.62 101.981) (end 138.049 101.981) (width 0.4) (layer F.Cu) (net 9))
  (segment (start 138.43 101.6) (end 138.43 96.52) (width 0.4) (layer F.Cu) (net 9))
  (segment (start 138.049 101.981) (end 138.43 101.6) (width 0.4) (layer F.Cu) (net 9))
  (segment (start 124.46 104.8512) (end 124.46 104.902) (width 0.4) (layer F.Cu) (net 9))
  (segment (start 127.3302 101.981) (end 124.46 104.8512) (width 0.4) (layer F.Cu) (net 9))
  (segment (start 134.62 101.981) (end 127.3302 101.981) (width 0.4) (layer F.Cu) (net 9))
  (segment (start 118.11 91.44) (end 122.428 91.44) (width 0.4) (layer F.Cu) (net 9))
  (segment (start 122.428 93.98) (end 121.92 94.488) (width 0.4) (layer F.Cu) (net 9))
  (segment (start 122.428 91.44) (end 122.428 93.98) (width 0.4) (layer F.Cu) (net 9))
  (segment (start 126.4285 101.981) (end 127.3302 101.981) (width 0.4) (layer F.Cu) (net 9))
  (segment (start 122.2375 97.79) (end 126.4285 101.981) (width 0.4) (layer F.Cu) (net 9))
  (segment (start 121.92 97.79) (end 122.2375 97.79) (width 0.4) (layer F.Cu) (net 9))
  (segment (start 135.24738 98.05162) (end 134.62 98.679) (width 0.4) (layer F.Cu) (net 10))
  (segment (start 135.24738 93.32214) (end 135.24738 98.05162) (width 0.4) (layer F.Cu) (net 10))
  (segment (start 130.81 96.52) (end 129.032 96.52) (width 0.4) (layer F.Cu) (net 10))
  (segment (start 130.81 98.6155) (end 130.81 96.52) (width 0.4) (layer F.Cu) (net 10))
  (segment (start 134.62 98.679) (end 130.8735 98.679) (width 0.4) (layer F.Cu) (net 10))
  (segment (start 130.8735 98.679) (end 130.81 98.6155) (width 0.4) (layer F.Cu) (net 10))

)
