<?xml version="1.0" standalone="no"?>
 <!DOCTYPE svg PUBLIC "-//W3C//DTD SVG 1.1//EN" 
 "http://www.w3.org/Graphics/SVG/1.1/DTD/svg11.dtd"> 
<svg xmlns="http://www.w3.org/2000/svg" version="1.1" 
    width="4.46278cm" height="3.19278cm" viewBox="0 0 17570 12570 ">
<title>SVG Picture created as numid-F_Cu.svg date 2019/05/31 13:17:25 </title>
  <desc>Picture generated by PCBNEW </desc>
<g style="fill:#000000; fill-opacity:1;stroke:#000000; stroke-opacity:1;
stroke-linecap:round; stroke-linejoin:round; "
 transform="translate(0 0) scale(1 1)">
</g>
<g style="fill:#000000; fill-opacity:0.0; 
stroke:#000000; stroke-width:-0.000393701; stroke-opacity:1; 
stroke-linecap:round; stroke-linejoin:round;">
<g >
</g>
<g style="fill:#000000; fill-opacity:0.0; 
stroke:#000000; stroke-width:0; stroke-opacity:1; 
stroke-linecap:round; stroke-linejoin:round;">
</g>
<g style="fill:#000000; fill-opacity:1.0; 
stroke:#000000; stroke-width:0; stroke-opacity:1; 
stroke-linecap:round; stroke-linejoin:round;">
<path style="fill:#000000; fill-opacity:1.0; 
stroke:#000000; stroke-width:0; stroke-opacity:1; 
stroke-linecap:round; stroke-linejoin:round;fill-rule:evenodd;"
d="M 6289,5164
6289,5914
5789,5914
5789,5164
6289,5164
Z" /> 
<path style="fill:#000000; fill-opacity:1.0; 
stroke:#000000; stroke-width:0; stroke-opacity:1; 
stroke-linecap:round; stroke-linejoin:round;fill-rule:evenodd;"
d="M 4989,5164
4989,5914
4489,5914
4489,5164
4989,5164
Z" /> 
</g>
<g >
<path style="fill:#000000; fill-opacity:1.0; 
stroke:#000000; stroke-width:0; stroke-opacity:1; 
stroke-linecap:round; stroke-linejoin:round;fill-rule:evenodd;"
d="M 12539,4289
12539,3789
13539,3789
13539,4289
12539,4289
Z" /> 
<path style="fill:#000000; fill-opacity:1.0; 
stroke:#000000; stroke-width:0; stroke-opacity:1; 
stroke-linecap:round; stroke-linejoin:round;fill-rule:evenodd;"
d="M 14688,4289
14688,3789
15688,3789
15688,4289
14688,4289
Z" /> 
<path style="fill:#000000; fill-opacity:1.0; 
stroke:#000000; stroke-width:0; stroke-opacity:1; 
stroke-linecap:round; stroke-linejoin:round;fill-rule:evenodd;"
d="M 12539,5289
12539,4789
13539,4789
13539,5289
12539,5289
Z" /> 
<path style="fill:#000000; fill-opacity:1.0; 
stroke:#000000; stroke-width:0; stroke-opacity:1; 
stroke-linecap:round; stroke-linejoin:round;fill-rule:evenodd;"
d="M 14688,5289
14688,4789
15688,4789
15688,5289
14688,5289
Z" /> 
<path style="fill:#000000; fill-opacity:1.0; 
stroke:#000000; stroke-width:0; stroke-opacity:1; 
stroke-linecap:round; stroke-linejoin:round;fill-rule:evenodd;"
d="M 12539,6289
12539,5789
13539,5789
13539,6289
12539,6289
Z" /> 
<path style="fill:#000000; fill-opacity:1.0; 
stroke:#000000; stroke-width:0; stroke-opacity:1; 
stroke-linecap:round; stroke-linejoin:round;fill-rule:evenodd;"
d="M 14688,6289
14688,5789
15688,5789
15688,6289
14688,6289
Z" /> 
</g>
<g >
<path style="fill:#000000; fill-opacity:1.0; 
stroke:#000000; stroke-width:0; stroke-opacity:1; 
stroke-linecap:round; stroke-linejoin:round;fill-rule:evenodd;"
d="M 9191,6713
9191,5847
9387,5847
9387,6713
9191,6713
Z" /> 
<path style="fill:#000000; fill-opacity:1.0; 
stroke:#000000; stroke-width:0; stroke-opacity:1; 
stroke-linecap:round; stroke-linejoin:round;fill-rule:evenodd;"
d="M 9688,6713
9688,5847
9884,5847
9884,6713
9688,6713
Z" /> 
<path style="fill:#000000; fill-opacity:1.0; 
stroke:#000000; stroke-width:0; stroke-opacity:1; 
stroke-linecap:round; stroke-linejoin:round;fill-rule:evenodd;"
d="M 10187,6713
10187,5847
10383,5847
10383,6713
10187,6713
Z" /> 
<path style="fill:#000000; fill-opacity:1.0; 
stroke:#000000; stroke-width:0; stroke-opacity:1; 
stroke-linecap:round; stroke-linejoin:round;fill-rule:evenodd;"
d="M 10687,6713
10687,5847
10883,5847
10883,6713
10687,6713
Z" /> 
<path style="fill:#000000; fill-opacity:1.0; 
stroke:#000000; stroke-width:0; stroke-opacity:1; 
stroke-linecap:round; stroke-linejoin:round;fill-rule:evenodd;"
d="M 10691,4231
10691,3365
10887,3365
10887,4231
10691,4231
Z" /> 
<path style="fill:#000000; fill-opacity:1.0; 
stroke:#000000; stroke-width:0; stroke-opacity:1; 
stroke-linecap:round; stroke-linejoin:round;fill-rule:evenodd;"
d="M 10191,4231
10191,3365
10387,3365
10387,4231
10191,4231
Z" /> 
<path style="fill:#000000; fill-opacity:1.0; 
stroke:#000000; stroke-width:0; stroke-opacity:1; 
stroke-linecap:round; stroke-linejoin:round;fill-rule:evenodd;"
d="M 9691,4231
9691,3365
9887,3365
9887,4231
9691,4231
Z" /> 
<path style="fill:#000000; fill-opacity:1.0; 
stroke:#000000; stroke-width:0; stroke-opacity:1; 
stroke-linecap:round; stroke-linejoin:round;fill-rule:evenodd;"
d="M 9191,4231
9191,3365
9387,3365
9387,4231
9191,4231
Z" /> 
</g>
<g >
<path style="fill:#000000; fill-opacity:1.0; 
stroke:#000000; stroke-width:0; stroke-opacity:1; 
stroke-linecap:round; stroke-linejoin:round;fill-rule:evenodd;"
d="M 7664,3989
8414,3989
8414,4489
7664,4489
7664,3989
Z" /> 
<path style="fill:#000000; fill-opacity:1.0; 
stroke:#000000; stroke-width:0; stroke-opacity:1; 
stroke-linecap:round; stroke-linejoin:round;fill-rule:evenodd;"
d="M 7664,5289
8414,5289
8414,5789
7664,5789
7664,5289
Z" /> 
</g>
<g >
<path style="fill:#000000; fill-opacity:1.0; 
stroke:#000000; stroke-width:0; stroke-opacity:1; 
stroke-linecap:round; stroke-linejoin:round;fill-rule:evenodd;"
d="M 9914,8639
9164,8639
9164,8139
9914,8139
9914,8639
Z" /> 
<path style="fill:#000000; fill-opacity:1.0; 
stroke:#000000; stroke-width:0; stroke-opacity:1; 
stroke-linecap:round; stroke-linejoin:round;fill-rule:evenodd;"
d="M 9914,9939
9164,9939
9164,9439
9914,9439
9914,9939
Z" /> 
</g>
<g >
<path style="fill:#000000; fill-opacity:1.0; 
stroke:#000000; stroke-width:0; stroke-opacity:1; 
stroke-linecap:round; stroke-linejoin:round;fill-rule:evenodd;"
d="M 5314,9864
5314,10214
5004,10214
5004,9864
5314,9864
Z" /> 
<path style="fill:#000000; fill-opacity:1.0; 
stroke:#000000; stroke-width:0; stroke-opacity:1; 
stroke-linecap:round; stroke-linejoin:round;fill-rule:evenodd;"
d="M 5694,10664
5694,11014
5384,11014
5384,10664
5694,10664
Z" /> 
<path style="fill:#000000; fill-opacity:1.0; 
stroke:#000000; stroke-width:0; stroke-opacity:1; 
stroke-linecap:round; stroke-linejoin:round;fill-rule:evenodd;"
d="M 4934,10664
4934,11014
4624,11014
4624,10664
4934,10664
Z" /> 
</g>
<g >
<path style="fill:#000000; fill-opacity:1.0; 
stroke:#000000; stroke-width:0; stroke-opacity:1; 
stroke-linecap:round; stroke-linejoin:round;fill-rule:evenodd;"
d="M 3414,5789
2664,5789
2664,5289
3414,5289
3414,5789
Z" /> 
<path style="fill:#000000; fill-opacity:1.0; 
stroke:#000000; stroke-width:0; stroke-opacity:1; 
stroke-linecap:round; stroke-linejoin:round;fill-rule:evenodd;"
d="M 3414,4489
2664,4489
2664,3989
3414,3989
3414,4489
Z" /> 
</g>
<g >
<path style="fill:#000000; fill-opacity:1.0; 
stroke:#000000; stroke-width:0; stroke-opacity:1; 
stroke-linecap:round; stroke-linejoin:round;fill-rule:evenodd;"
d="M 3414,9089
2664,9089
2664,8589
3414,8589
3414,9089
Z" /> 
<path style="fill:#000000; fill-opacity:1.0; 
stroke:#000000; stroke-width:0; stroke-opacity:1; 
stroke-linecap:round; stroke-linejoin:round;fill-rule:evenodd;"
d="M 3414,7789
2664,7789
2664,7289
3414,7289
3414,7789
Z" /> 
</g>
<g >
<path style="fill:#000000; fill-opacity:1.0; 
stroke:#000000; stroke-width:0; stroke-opacity:1; 
stroke-linecap:round; stroke-linejoin:round;fill-rule:evenodd;"
d="M 9589,2414
9589,1664
10089,1664
10089,2414
9589,2414
Z" /> 
<path style="fill:#000000; fill-opacity:1.0; 
stroke:#000000; stroke-width:0; stroke-opacity:1; 
stroke-linecap:round; stroke-linejoin:round;fill-rule:evenodd;"
d="M 8289,2414
8289,1664
8789,1664
8789,2414
8289,2414
Z" /> 
</g>
<g >
<path style="fill:#000000; fill-opacity:1.0; 
stroke:#000000; stroke-width:0; stroke-opacity:1; 
stroke-linecap:round; stroke-linejoin:round;fill-rule:evenodd;"
d="M 5789,7914
5789,7164
6289,7164
6289,7914
5789,7914
Z" /> 
<path style="fill:#000000; fill-opacity:1.0; 
stroke:#000000; stroke-width:0; stroke-opacity:1; 
stroke-linecap:round; stroke-linejoin:round;fill-rule:evenodd;"
d="M 7089,7914
7089,7164
7589,7164
7589,7914
7089,7914
Z" /> 
</g>
<g >
<path style="fill:#000000; fill-opacity:1.0; 
stroke:#000000; stroke-width:0; stroke-opacity:1; 
stroke-linecap:round; stroke-linejoin:round;fill-rule:evenodd;"
d="M 4914,8289
4164,8289
4164,7789
4914,7789
4914,8289
Z" /> 
<path style="fill:#000000; fill-opacity:1.0; 
stroke:#000000; stroke-width:0; stroke-opacity:1; 
stroke-linecap:round; stroke-linejoin:round;fill-rule:evenodd;"
d="M 4914,6989
4164,6989
4164,6489
4914,6489
4914,6989
Z" /> 
</g>
<g >
</g>
<g >
</g>
<g style="fill:#000000; fill-opacity:1.0; 
stroke:#000000; stroke-width:157.48; stroke-opacity:1; 
stroke-linecap:round; stroke-linejoin:round;">
</g>
<g style="fill:#000000; fill-opacity:0.0; 
stroke:#000000; stroke-width:157.48; stroke-opacity:1; 
stroke-linecap:round; stroke-linejoin:round;">
<path d="M10289 4388
L10289 3798
" />
<path d="M10439 4539
L10289 4388
" />
<path d="M11539 4539
L10439 4539
" />
<path d="M13039 4039
L12039 4039
" />
<path d="M12039 4039
L11539 4539
" />
<path d="M9839 2039
L10246 2039
" />
<path d="M10289 3289
L10289 3798
" />
<path d="M10246 3246
L10289 3289
" />
<path d="M10246 2039
L10246 3246
" />
<path d="M9789 4789
L9789 3798
" />
<path d="M10039 5039
L9789 4789
" />
<path d="M10039 5039
L13039 5039
" />
<path d="M9789 3798
L9789 3263
" />
<path d="M10789 3207
L10957 3039
" />
<path d="M10789 3798
L10789 3207
" />
<path d="M10957 3039
L14039 3039
" />
<path d="M14039 3039
L14039 5039
" />
<path d="M14039 5039
L15188 5039
" />
<path d="M9695 5539
L9289 5945
" />
<path d="M9289 6615
L9289 6280
" />
<path d="M13039 6039
L12039 6039
" />
<path d="M12039 6039
L11539 5539
" />
<path d="M11539 5539
L9695 5539
" />
<path d="M9289 6870
L9289 6280
" />
<path d="M9289 5945
L9289 6280
" />
<path d="M9289 5689
L9289 6280
" />
<path d="M9138 5539
L9289 5689
" />
<path d="M8039 5539
L9138 5539
" />
<path d="M5159 9659
L5159 10039
" />
<path d="M3039 8839
L4339 8839
" />
<path d="M4339 8839
L5159 9659
" />
<path d="M4779 10839
L4779 10819
" />
<path d="M4339 10839
L4779 10839
" />
<path d="M7039 2039
L6039 3039
" />
<path d="M8539 2039
L7039 2039
" />
<path d="M6039 3039
L1539 3039
" />
<path d="M1539 3039
L1539 10039
" />
<path d="M1539 10039
L3539 10039
" />
<path d="M3539 10039
L4339 10839
" />
<path d="M9786 8492
L9739 8539
" />
<path d="M15039 2539
L15188 2688
" />
<path d="M11039 2539
L15039 2539
" />
<path d="M11039 1539
L11039 2539
" />
<path d="M9289 3798
L9289 3207
" />
<path d="M9039 2957
L9039 1539
" />
<path d="M9039 1539
L9539 1039
" />
<path d="M9289 3207
L9039 2957
" />
<path d="M9539 1039
L10539 1039
" />
<path d="M15188 2688
L15188 4039
" />
<path d="M10539 1039
L11039 1539
" />
<path d="M8039 4239
L8039 4039
" />
<path d="M8280 3798
L9289 3798
" />
<path d="M8039 4039
L8280 3798
" />
<path d="M5239 4239
L6039 4239
" />
<path d="M5239 4239
L3039 4239
" />
<path d="M6039 7539
L6039 5539
" />
<path d="M6039 4439
L5839 4239
" />
<path d="M6039 5539
L6039 4439
" />
<path d="M8039 4239
L5839 4239
" />
<path d="M5839 4239
L5239 4239
" />
<path d="M6039 7539
L3039 7539
" />
<path d="M10785 7285
L10785 6280
" />
<path d="M11039 7539
L10785 7285
" />
<path d="M16039 6039
L15188 6039
" />
<path d="M11039 7539
L16039 7539
" />
<path d="M16039 7539
L16039 6039
" />
<path d="M9539 9689
L10889 9689
" />
<path d="M11039 9539
L11039 7539
" />
<path d="M10889 9689
L11039 9539
" />
<path d="M5539 10819
L5539 10839
" />
<path d="M6669 9689
L5539 10819
" />
<path d="M9539 9689
L6669 9689
" />
<path d="M3039 5539
L4739 5539
" />
<path d="M4739 6539
L4539 6739
" />
<path d="M4739 5539
L4739 6539
" />
<path d="M6314 9689
L6669 9689
" />
<path d="M4664 8039
L6314 9689
" />
<path d="M4539 8039
L4664 8039
" />
<path d="M9786 8142
L9539 8389
" />
<path d="M9786 6280
L9786 8142
" />
<path d="M8039 7539
L7339 7539
" />
<path d="M8039 8364
L8039 7539
" />
<path d="M9539 8389
L8064 8389
" />
<path d="M8064 8389
L8039 8364
" />
</g>
<g >
</g>
</g>
<g style="fill:#FFFFFF; fill-opacity:0.0; 
stroke:#FFFFFF; stroke-width:157.48; stroke-opacity:1; 
stroke-linecap:round; stroke-linejoin:round;">
</g>
<g style="fill:#000000; fill-opacity:0.0; 
stroke:#000000; stroke-width:157.48; stroke-opacity:1; 
stroke-linecap:round; stroke-linejoin:round;">
</g> 
</svg>
