<?xml version="1.0" encoding="utf-8"?>
<!-- Generator: Adobe Illustrator 17.0.0, SVG Export Plug-In . SVG Version: 6.00 Build 0)  -->
<!DOCTYPE svg PUBLIC "-//W3C//DTD SVG 1.1//EN" "http://www.w3.org/Graphics/SVG/1.1/DTD/svg11.dtd">
<svg version="1.1" id="Capa_1" xmlns="http://www.w3.org/2000/svg" xmlns:xlink="http://www.w3.org/1999/xlink" x="0px" y="0px"
	 width="960px" height="560px" viewBox="0 0 960 560" enable-background="new 0 0 960 560" xml:space="preserve">
<path fill="#211915" d="M520.167,296.833c-1.342,0.523-63.169,1.615-64.667-0.042c-0.814-0.9-1.002-8.906,0-10
	c1.665-1.817,63.43-0.295,64.667,0.042C521.747,287.263,521.71,296.231,520.167,296.833z"/>
<path fill="#211915" d="M465.667,237.747c1.033-0.274,17.688,20.982,28,25.419c12.112,5.212,23.174,4.055,26.233,4.25
	c1.106,0.071,1.438,9.388-0.018,10c-2.137,0.899-62.806,0.846-64.667-0.042c-1.007-0.48-1.181-9.862,0-10
	c0.762-0.089,19.181-0.709,20.743-1.709c1.537-0.984-17.958-18.523-18.604-22.169"/>
<path fill="#211915" d="M520.167,314.794c-1.342,0.524-63.169,1.615-64.667-0.042c-0.814-0.9-1.002-8.906,0-10
	c1.665-1.817,63.43-0.295,64.667,0.042C521.747,305.224,521.71,314.192,520.167,314.794z"/>
<path fill="#211915" d="M520.167,332.739c-1.342,0.524-63.169,1.615-64.667-0.042c-0.814-0.9-1.002-8.906,0-10
	c1.665-1.817,63.43-0.295,64.667,0.042C521.747,323.169,521.71,332.137,520.167,332.739z"/>
<text transform="matrix(1 0 0 1 533.542 282.5833)"><tspan x="0" y="0" font-family="'Roboto-Black'" font-size="21">CAR</tspan><tspan x="0" y="25.2" font-family="'Roboto-Black'" font-size="21">SHARING</tspan><tspan x="0" y="50.4" font-family="'Roboto-Black'" font-size="21">POST</tspan></text>
</svg>
